{
  "control": ["Red","Red","Red","Red","Red","Red","Red","Red","Red","Red","Red","Red","Red","Red","Red","Red","Red","Red","Red","Red","Red","Red","Red","Red","Red","Red","Red","Red","Red","Red","Red","Red","Red","Red","Red","Red","Red","Red","Red","Red","Red","Red","Red","Red","Red","Red","Red","Red","Red","Red","Blue","Blue","Blue","Blue","Blue","Blue","Blue","Blue","Blue","Blue","Blue","Blue","Blue","Blue","Blue","Blue","Blue","Blue","Blue","Blue","Blue","Blue","Blue","Blue","Blue","Blue","Blue","Blue","Blue","Blue","Blue","Blue","Blue","Blue","Blue","Blue","Blue","Blue","Blue","Blue","Blue","Blue","Blue","Blue","Blue","Blue","Blue","Blue","Blue","Blue"],
  "strengths":[10, 10, 10, 10, 10, 10, 10, 10, 10, 10, 10, 10, 10, 10, 10, 10, 10, 10, 10, 10, 10, 10, 10, 10, 10, 10, 10, 10, 10, 10, 10, 10, 10, 10, 10, 10, 10, 10, 10, 10, 10, 10, 10, 10, 10, 10, 10, 10, 10, 10, 10, 10, 10, 10, 10, 10, 10, 10, 10, 10, 10, 10, 10, 10, 10, 10, 10, 10, 10, 10, 10, 10, 10, 10, 10, 10, 10, 10, 10, 10, 10, 10, 10, 10, 10, 10, 10, 10, 10, 10, 10, 10, 10, 10, 10, 10, 10, 10, 10, 10],
  "currTurn": 1,
  "maxTurns": 1000,
  "random": 1802744224
}
