
==============================================================
Day 1: Morning Session
Exercise Set 1: Getting Started
==============================================================

1) [Rating: 1] Check out the repository. Likely already done,
   if you are looking at this file.

> git clone git@bitbucket.org:softformaths/softwaredevelopment.git

