{
  "control": ["Red","Red","Red","Red","Red","Red","Red","Red","Red","Red","Red","Red","Red","Red","Red","Red","Red","Red","Red","Red","Red","Red","Red","Red","Red","Red","Red","Red","Red","Red","Red","Blue","Red","Red","Red","Red","Red","Red","Red","Red","Red","Red","Red","Red","Red","Red","Red","Red","Red","Red","Red","Red","Red","Red","Red","Red","Red","Red","Red","Red","Red","Red","Red","Red","Red","Red","Red","Red","Red","Red","Red","Red","Red","Red","Red","Red","Red","Red","Red","Red","Red","Red","Red","Red","Red","Red","Red","Red","Red","Red","Red","Red","Red","Red","Red","Red","Red","Red","Red","Red"],
  "strengths":[1,1,1,1,1,1,1,1,1,1,1,1,1,1,1,1,1,1,1,1,1,1,1,1,5,25,5,1,1,1,1,1,1,1,1,1,1,1,1,1,1,1,1,1,1,1,1,1,1,1,1,1,1,1,1,1,1,1,1,1,1,1,1,1,1,1,1,1,1,1,1,1,1,1,1,1,1,1,1,1,1,1,1,1,1,1,1,1,1,1,1,1,1,1,1,1,1,1,1,1],
  "currTurn": 998,
  "maxTurns": 1000,
  "random": 1812744224
}
