{
  "control": ["Neutral","Neutral","Neutral","Neutral","Neutral","Neutral","Neutral","Neutral","Neutral","Neutral",
  			  "Neutral","Neutral","Neutral","Neutral","Neutral","Neutral","Neutral","Neutral","Neutral","Neutral",
  			  "Blue","Blue","Blue","Blue","Blue","Red","Neutral","Neutral","Neutral","Neutral",
  			  "Neutral","Neutral","Neutral","Neutral","Neutral","Neutral","Neutral","Neutral","Neutral","Neutral",
  			  "Neutral","Neutral","Neutral","Neutral","Neutral","Neutral","Neutral","Neutral","Neutral","Neutral",
  			  "Neutral","Neutral","Neutral","Neutral","Neutral","Neutral","Neutral","Neutral","Neutral","Neutral",
  			  "Neutral","Neutral","Neutral","Neutral","Neutral","Neutral","Neutral","Neutral","Neutral","Neutral",
  			  "Neutral","Neutral","Neutral","Neutral","Red","Blue","Blue","Blue","Blue","Blue",
  			  "Neutral","Neutral","Neutral","Neutral","Neutral","Neutral","Neutral","Neutral","Neutral","Neutral",
  			  "Neutral","Neutral","Neutral","Neutral","Neutral","Neutral","Neutral","Neutral","Neutral","Neutral"],
  "strengths":[0,0,0,0,0,0,0,0,0,0,
  			   0,0,0,0,0,0,0,0,0,0,
  			   20,20,20,20,20,20,0,0,0,0,
  			   0,0,0,0,0,0,0,0,0,0,
  			   0,0,0,0,0,0,0,0,0,0,
  			   0,0,0,0,0,0,0,0,0,0,
  			   0,0,0,0,0,0,0,0,0,0,
  			   0,0,0,0,20,20,20,20,20,20,
  			   0,0,0,0,0,0,0,0,0,0,
  			   0,0,0,0,0,0,0,0,0,0],
  "currTurn": 700,
  "maxTurns": 1000,
  "random": 1802744220
}
